…
# a data frame
results <- tidy(lm_time)
results

## # A tibble: 2 x 5
##   term        estimate std.error statistic  p.value
##   <chr>          <dbl>     <dbl>     <dbl>    <dbl>
## 1 (Intercept)  46.7      0.318       147.  0.      
## 2 days          0.0164   0.00156      10.5 2.06e-23

Augment: Predicted Values

augment(lm_time)

## # A tibble: 495 x 8
##     Vote  days .fitted .resid .std.resid    .hat .sigma   .cooksd
##    <dbl> <dbl>   <dbl>  <dbl>      <dbl>   <dbl>  <dbl>     <dbl>
##  1    52   305    51.7  0.339      0.126 0.00653   2.71 0.0000519
##  2    52   304    51.6  0.355      0.132 0.00645   2.71 0.0000564
##  3    51   304    51.6 -0.645     -0.239 0.00645   2.71 0.000185 
##  4    52   306    51.7  0.323      0.120 0.00661   2.71 0.0000476
##  5    48   304    51.6 -3.64      -1.35  0.00645   2.70 0.00593  
##  6    50   305    51.7 -1.66      -0.616 0.00653   2.71 0.00125  
##  7    53   305    51.7  1.34       0.497 0.00653   2.71 0.000810 
##  8    53   306    51.7  1.32       0.491 0.00661   2.71 0.000800 
##  9    53   305    51.7  1.34       0.497 0.00653   2.71 0.000810 
## 10    50   306    51.7 -1.68      -0.622 0.00661   2.71 0.00129  
## # … with 485 more rows
…
The logic is simple. We will nest our data, run models in the subgroups, tidy the results, and unnest everything in a tidy format dataset.

Nest the Data

# Step 1: Nest your data
nested_data <- state_polls %>%
                 filter(Vote_Choice=="biden") %>%
                 mutate(first_day=min(end.date, na.rm=TRUE), 
                         days=as.numeric(end.date-first_day)) %>%
                 group_by(state) %>% #<<
                 nest() #<<

nested_data

## # A tibble: 47 x 2
## # Groups:   state [47]
##    state data               
##    <chr> <list>             
##  1 MT    <tibble [18 × 18]> 
##  2 ME    <tibble [19 × 18]> 
##  3 IA    <tibble [32 × 18]> 
##  4 WI    <tibble [95 × 18]> 
##  5 PA    <tibble [112 × 18]>
##  6 NC    <tibble [104 × 18]>
##  7 MI    <tibble [112 × 18]>
##  8 FL    <tibble [105 × 18]>
##  9 AZ    <tibble [88 × 18]> 
## 10 MN    <tibble [34 × 18]> 
## # … with 37 more rows

The data column is called a list-column because it works as a list where every element has a entire dataset.

With a list of datasets, we can use functional programming in purrr to run the same models for each dataset.

Run the Models

nested_data <- nested_data %>%
                mutate(model=map(data, ~ lm(Vote~days, .x))) #<<

nested_data

## # A tibble: 47 x 3
## # Groups:   state [47]
##    state data                model 
##    <chr> <list>              <list>
##  1 MT    <tibble [18 × 18]>  <lm>  
##  2 ME    <tibble [19 × 18]>  <lm>  
##  3 IA    <tibble [32 × 18]>  <lm>  
##  4 WI    <tibble [95 × 18]>  <lm>  
##  5 PA    <tibble [112 × 18]> <lm>  
##  6 NC    <tibble [104 × 18]> <lm>  
##  7 MI    <tibble [112 × 18]> <lm>  
##  8 FL    <tibble [105 × 18]> <lm>  
##  9 AZ    <tibble [88 × 18]>  <lm>  
## 10 MN    <tibble [34 × 18]>  <lm>  
## # … with 37 more rows
…
The paper and replication files can be found here.

Our Goal: A model of partisanship on three different outcomes.

Step1: Tidy Your Data

load("CV_data.Rdata")
library(tidyverse)
library(tidyr)

# Untidy
d %>% select(covid_job, covid_health, covid_government)

## # A tibble: 2,362 x 3
##    covid_job         covid_health      covid_government      
##    <fct>             <fct>             <fct>                 
##  1 Very unlikely     Somewhat unlikely Somewhat Unappropriate
##  2 Very unlikely     Somewhat Likely   Somewhat Appropriate  
##  3 Very Likely       Very Likely       Very Appropriate      
##  4 Very Likely       Very Likely       Somewhat Unappropriate
##  5 Somewhat Likely   Somewhat Likely   Somewhat Appropriate  
##  6 Somewhat Likely   Somewhat unlikely Somewhat Appropriate  
##  7 Very unlikely     Somewhat Likely   Very Appropriate      
##  8 Somewhat unlikely Somewhat Likely   Very Appropriate      
##  9 Very unlikely     Somewhat Likely   Somewhat Unappropriate
## 10 Very Likely       Somewhat unlikely Somewhat Unappropriate
## # … with 2,352 more rows

Make it tidy

d_pivot <- d %>% 
            pivot_longer(cols=c(covid_job, covid_health, 
                                covid_government), 
                         names_to="covid", 
                         values_to="covid_values") 

What do I have now?

## # A tibble: 7,086 x 2
##    covid            covid_values          
##    <chr>            <fct>                 
##  1 covid_job        Very unlikely         
##  2 covid_health     Somewhat unlikely     
##  3 covid_government Somewhat Unappropriate
##  4 covid_job        Very unlikely         
##  5 covid_health     Somewhat Likely       
##  6 covid_government Somewhat Appropriate  
##  7 covid_job        Very Likely           
##  8 covid_health     Very Likely           
##  9 covid_government Very Appropriate      
## 10 covid_job        Very Likely           
## # … with 7,076 more rows
…
