…
Part 1:Tidy your data

Understanding what a tidy data entails is key to use ggplot. I cannot emphasize this enough, but getting you data ready (and by ready I mean tidy and with the proper labels) is 80% of the gpplot work. Most of the times some friends ask me for help with a graph, the solution is the pre-processing, and not in the plotting part of their codes.

Starting some coding

Let’s first call our packages. I am using the package packman to help me manage my libraries.

pacman::p_load(tidyverse, gapminder, kableExtra, tidyr, ggthemes, patchwork)

This is a tidy data:

gapminder

## # A tibble: 1,704 x 6
##    country     continent  year lifeExp      pop gdpPercap
##    <fct>       <fct>     <int>   <dbl>    <int>     <dbl>
##  1 Afghanistan Asia       1952    28.8  8425333      779.
##  2 Afghanistan Asia       1957    30.3  9240934      821.
##  3 Afghanistan Asia       1962    32.0 10267083      853.
##  4 Afghanistan Asia       1967    34.0 11537966      836.
##  5 Afghanistan Asia       1972    36.1 13079460      740.
##  6 Afghanistan Asia       1977    38.4 14880372      786.
##  7 Afghanistan Asia       1982    39.9 12881816      978.
##  8 Afghanistan Asia       1987    40.8 13867957      852.
##  9 Afghanistan Asia       1992    41.7 16317921      649.
## 10 Afghanistan Asia       1997    41.8 22227415      635.
## # … with 1,694 more rows
…
